GFORTRAN module version '10' created from mfestmod.f95
MD5:6c135f5addc6e207aa06726d7adc819b -- If you edit this, you'll get what you deserve.

(() () () () () () () () () () () () () () () () () () () () () () ()
() () () ())

()

(('swap' 'utilmod' 2 3 4))

()

()

()

(5 'amoebaccd' 'mfestmod' '' 1 ((PROCEDURE UNKNOWN-INTENT MODULE-PROC
DECL UNKNOWN 0 0 SUBROUTINE ALWAYS_EXPLICIT) (UNKNOWN 0 0 0 0 UNKNOWN ())
6 0 (7 8 9 10 11 12) () 0 () () () 0 0)
13 'amoebavarbinestchi' 'mfestmod' '' 1 ((PROCEDURE UNKNOWN-INTENT
MODULE-PROC DECL UNKNOWN 0 0 SUBROUTINE ALWAYS_EXPLICIT) (UNKNOWN 0 0 0
0 UNKNOWN ()) 14 0 (15 16 17 18 19 20) () 0 () () () 0 0)
21 'asquaredpl' 'mfestmod' '' 1 ((PROCEDURE UNKNOWN-INTENT MODULE-PROC
DECL UNKNOWN 0 0 FUNCTION ALWAYS_EXPLICIT) (REAL 8 0 0 0 REAL ()) 22 0 (
23 24 25 26) () 21 () () () 0 0)
27 'avdeviation' 'statfunmod' '' 1 ((PROCEDURE UNKNOWN-INTENT
MODULE-PROC DECL UNKNOWN 0 0 FUNCTION ALWAYS_EXPLICIT) (REAL 8 0 0 0
REAL ()) 28 0 (29) () 27 () () () 0 0)
30 'average' 'statfunmod' '' 1 ((PROCEDURE UNKNOWN-INTENT MODULE-PROC
DECL UNKNOWN 0 0 FUNCTION IMPLICIT_PURE ALWAYS_EXPLICIT) (REAL 8 0 0 0
REAL ()) 31 0 (32 33) () 30 () () () 0 0)
34 'baxterest' 'mfestmod' '' 1 ((PROCEDURE UNKNOWN-INTENT MODULE-PROC
DECL UNKNOWN 0 0 SUBROUTINE IMPLICIT_PURE ALWAYS_EXPLICIT) (UNKNOWN 0 0
0 0 UNKNOWN ()) 35 0 (36 37 38) () 0 () () () 0 0)
39 'begest' 'mfestmod' '' 1 ((PROCEDURE UNKNOWN-INTENT MODULE-PROC DECL
UNKNOWN 0 0 SUBROUTINE ALWAYS_EXPLICIT) (UNKNOWN 0 0 0 0 UNKNOWN ()) 40
0 (41 42 43 44) () 0 () () () 0 0)
45 'begest_recursive' 'mfestmod' '' 1 ((PROCEDURE UNKNOWN-INTENT
MODULE-PROC DECL UNKNOWN 0 0 SUBROUTINE IMPLICIT_PURE ALWAYS_EXPLICIT) (
UNKNOWN 0 0 0 0 UNKNOWN ()) 46 0 (47 48 49 50) () 0 () () () 0 0)
51 'binko' 'mathmod' '' 1 ((PROCEDURE UNKNOWN-INTENT MODULE-PROC DECL
UNKNOWN 0 0 FUNCTION) (REAL 8 0 0 0 REAL ()) 52 0 (53 54) () 51 () () ()
0 0)
55 'burrcdf' 'mffunmod' '' 1 ((PROCEDURE UNKNOWN-INTENT MODULE-PROC DECL
UNKNOWN 0 0 FUNCTION IMPLICIT_PURE) (REAL 8 0 0 0 REAL ()) 56 0 (57 58
59 60) () 55 () () () 0 0)
61 'cadd' 'utilmod' '' 1 ((PROCEDURE UNKNOWN-INTENT MODULE-PROC DECL
UNKNOWN 0 0 FUNCTION) (CHARACTER 1 0 0 0 CHARACTER ((CONSTANT (INTEGER 4
0 0 0 INTEGER ()) 0 '50'))) 62 0 (63 64) () 61 () () () 0 0)
65 'ccdest' 'mfestmod' '' 1 ((PROCEDURE UNKNOWN-INTENT MODULE-PROC DECL
UNKNOWN 0 0 SUBROUTINE ALWAYS_EXPLICIT) (UNKNOWN 0 0 0 0 UNKNOWN ()) 66
0 (67 68 69 70) () 0 () () () 0 0)
71 'chisquare_ccd' 'mfestmod' '' 1 ((PROCEDURE UNKNOWN-INTENT
MODULE-PROC DECL UNKNOWN 0 0 SUBROUTINE ALWAYS_EXPLICIT) (UNKNOWN 0 0 0
0 UNKNOWN ()) 72 0 (73 74 75 76) () 0 () () () 0 0)
77 'chisquare_plbinw' 'mfestmod' '' 1 ((PROCEDURE UNKNOWN-INTENT
MODULE-PROC DECL UNKNOWN 0 0 SUBROUTINE ALWAYS_EXPLICIT) (UNKNOWN 0 0 0
0 UNKNOWN ()) 78 0 (79 80 81 82) () 0 () () () 0 0)
83 'chisquareplbinw' 'mfestmod' '' 1 ((PROCEDURE UNKNOWN-INTENT
MODULE-PROC DECL UNKNOWN 0 0 FUNCTION IMPLICIT_PURE ALWAYS_EXPLICIT) (
REAL 8 0 0 0 REAL ()) 84 0 (85 86 87) () 83 () () () 0 0)
88 'constbinestlr' 'mfestmod' '' 1 ((PROCEDURE UNKNOWN-INTENT
MODULE-PROC DECL UNKNOWN 0 0 SUBROUTINE ALWAYS_EXPLICIT) (UNKNOWN 0 0 0
0 UNKNOWN ()) 89 0 (90 91 92) () 0 () () () 0 0)
93 'diagnostic' 'utilmod' '' 1 ((PROCEDURE UNKNOWN-INTENT MODULE-PROC
DECL UNKNOWN 0 0 SUBROUTINE) (UNKNOWN 0 0 0 0 UNKNOWN ()) 94 0 (95 96) ()
0 () () () 0 0)
97 'epsteinpl' 'mfestmod' '' 1 ((PROCEDURE UNKNOWN-INTENT MODULE-PROC
DECL UNKNOWN 0 0 FUNCTION ALWAYS_EXPLICIT) (REAL 8 0 0 0 REAL ()) 98 0 (
99 100 101 102) () 97 () () () 0 0)
103 'error' 'utilmod' '' 1 ((PROCEDURE UNKNOWN-INTENT MODULE-PROC DECL
UNKNOWN 0 0 SUBROUTINE ALWAYS_EXPLICIT) (UNKNOWN 0 0 0 0 UNKNOWN ()) 104
0 (105 106) () 0 () () () 0 0)
107 'exppdf' 'mffunmod' '' 1 ((PROCEDURE UNKNOWN-INTENT MODULE-PROC DECL
UNKNOWN 0 0 FUNCTION IMPLICIT_PURE) (REAL 8 0 0 0 REAL ()) 108 0 (109
110 111 112) () 107 () () () 0 0)
113 'fak' 'mathmod' '' 1 ((PROCEDURE UNKNOWN-INTENT MODULE-PROC DECL
UNKNOWN 0 0 FUNCTION IMPLICIT_PURE) (REAL 8 0 0 0 REAL ()) 114 0 (115) ()
113 () () () 0 0)
116 'gaussian' 'statfunmod' '' 1 ((PROCEDURE UNKNOWN-INTENT MODULE-PROC
DECL UNKNOWN 0 0 FUNCTION) (REAL 8 0 0 0 REAL ()) 117 0 (118 119 120) ()
116 () () () 0 0)
121 'genmassexp' 'mffunmod' '' 1 ((PROCEDURE UNKNOWN-INTENT MODULE-PROC
DECL UNKNOWN 0 0 FUNCTION) (REAL 8 0 0 0 REAL ()) 122 0 (123 124 125) ()
121 () () () 0 0)
126 'genmasspl' 'mffunmod' '' 1 ((PROCEDURE UNKNOWN-INTENT MODULE-PROC
DECL UNKNOWN 0 0 FUNCTION) (REAL 8 0 0 0 REAL ()) 127 0 (128 129 130 131)
() 126 () () () 0 0)
132 'greenwoodpl' 'mfestmod' '' 1 ((PROCEDURE UNKNOWN-INTENT MODULE-PROC
DECL UNKNOWN 0 0 FUNCTION ALWAYS_EXPLICIT) (REAL 8 0 0 0 REAL ()) 133 0
(134 135 136 137) () 132 () () () 0 0)
138 'histogram' 'statfunmod' '' 1 ((PROCEDURE UNKNOWN-INTENT MODULE-PROC
DECL UNKNOWN 0 0 SUBROUTINE ALWAYS_EXPLICIT) (UNKNOWN 0 0 0 0 UNKNOWN ())
139 0 (140 141 142 143) () 0 () () () 0 0)
144 'imaxloc' 'mathmod' '' 1 ((PROCEDURE UNKNOWN-INTENT MODULE-PROC DECL
UNKNOWN 0 0 FUNCTION IMPLICIT_PURE ALWAYS_EXPLICIT) (INTEGER 4 0 0 0
INTEGER ()) 145 0 (146) () 144 () () () 0 0)
147 'iminloc' 'mathmod' '' 1 ((PROCEDURE UNKNOWN-INTENT MODULE-PROC DECL
UNKNOWN 0 0 FUNCTION IMPLICIT_PURE ALWAYS_EXPLICIT) (INTEGER 4 0 0 0
INTEGER ()) 148 0 (149) () 147 () () () 0 0)
150 'intexppdf' 'mffunmod' '' 1 ((PROCEDURE UNKNOWN-INTENT MODULE-PROC
DECL UNKNOWN 0 0 FUNCTION IMPLICIT_PURE) (REAL 8 0 0 0 REAL ()) 151 0 (
152 153 154 155) () 150 () () () 0 0)
156 'intpdfpl' 'mffunmod' '' 1 ((PROCEDURE UNKNOWN-INTENT MODULE-PROC
DECL UNKNOWN 0 0 FUNCTION) (REAL 8 0 0 0 REAL ()) 157 0 (158 159 160 161)
() 156 () () () 0 0)
162 'invintpdfpl' 'mffunmod' '' 1 ((PROCEDURE UNKNOWN-INTENT MODULE-PROC
DECL UNKNOWN 0 0 FUNCTION) (REAL 8 0 0 0 REAL ()) 163 0 (164 165 166 167)
() 162 () () () 0 0)
168 'jackson' 'mfestmod' '' 1 ((PROCEDURE UNKNOWN-INTENT MODULE-PROC
DECL UNKNOWN 0 0 FUNCTION ALWAYS_EXPLICIT) (REAL 8 0 0 0 REAL ()) 169 0
(170 171 172 173) () 168 () () () 0 0)
174 'k0spsquaredsppl' 'mfestmod' '' 1 ((PROCEDURE UNKNOWN-INTENT
MODULE-PROC DECL UNKNOWN 0 0 FUNCTION ALWAYS_EXPLICIT) (REAL 8 0 0 0
REAL ()) 175 0 (176 177 178 179) () 174 () () () 0 0)
180 'k0squaredpl' 'mfestmod' '' 1 ((PROCEDURE UNKNOWN-INTENT MODULE-PROC
DECL UNKNOWN 0 0 FUNCTION ALWAYS_EXPLICIT) (REAL 8 0 0 0 REAL ()) 181 0
(182 183 184 185) () 180 () () () 0 0)
186 'ksminuspl' 'mfestmod' '' 1 ((PROCEDURE UNKNOWN-INTENT MODULE-PROC
DECL UNKNOWN 0 0 FUNCTION ALWAYS_EXPLICIT) (REAL 8 0 0 0 REAL ()) 187 0
(188 189 190 191) () 186 () () () 0 0)
192 'ksminussppl' 'mfestmod' '' 1 ((PROCEDURE UNKNOWN-INTENT MODULE-PROC
DECL UNKNOWN 0 0 FUNCTION ALWAYS_EXPLICIT) (REAL 8 0 0 0 REAL ()) 193 0
(194 195 196 197) () 192 () () () 0 0)
198 'kspl' 'mfestmod' '' 1 ((PROCEDURE UNKNOWN-INTENT MODULE-PROC DECL
UNKNOWN 0 0 FUNCTION ALWAYS_EXPLICIT) (REAL 8 0 0 0 REAL ()) 199 0 (200
201 202 203) () 198 () () () 0 0)
204 'kspluspl' 'mfestmod' '' 1 ((PROCEDURE UNKNOWN-INTENT MODULE-PROC
DECL UNKNOWN 0 0 FUNCTION ALWAYS_EXPLICIT) (REAL 8 0 0 0 REAL ()) 205 0
(206 207 208 209) () 204 () () () 0 0)
210 'ksplussppl' 'mfestmod' '' 1 ((PROCEDURE UNKNOWN-INTENT MODULE-PROC
DECL UNKNOWN 0 0 FUNCTION ALWAYS_EXPLICIT) (REAL 8 0 0 0 REAL ()) 211 0
(212 213 214 215) () 210 () () () 0 0)
216 'ksquaredpl' 'mfestmod' '' 1 ((PROCEDURE UNKNOWN-INTENT MODULE-PROC
DECL UNKNOWN 0 0 FUNCTION ALWAYS_EXPLICIT) (REAL 8 0 0 0 REAL ()) 217 0
(218 219 220 221) () 216 () () () 0 0)
222 'ksquaredsppl' 'mfestmod' '' 1 ((PROCEDURE UNKNOWN-INTENT
MODULE-PROC DECL UNKNOWN 0 0 FUNCTION ALWAYS_EXPLICIT) (REAL 8 0 0 0
REAL ()) 223 0 (224 225 226 227) () 222 () () () 0 0)
228 'kssppl' 'mfestmod' '' 1 ((PROCEDURE UNKNOWN-INTENT MODULE-PROC DECL
UNKNOWN 0 0 FUNCTION ALWAYS_EXPLICIT) (REAL 8 0 0 0 REAL ()) 229 0 (230
231 232 233) () 228 () () () 0 0)
234 'lamersdynevolv' 'mffunmod' '' 1 ((PROCEDURE UNKNOWN-INTENT
MODULE-PROC DECL UNKNOWN 0 0 FUNCTION) (REAL 8 0 0 0 REAL ()) 235 0 (
236 237 238) () 234 () () () 0 0)
239 'likelihoodratio' 'mfestmod' '' 1 ((PROCEDURE UNKNOWN-INTENT
MODULE-PROC DECL UNKNOWN 0 0 FUNCTION ALWAYS_EXPLICIT) (REAL 8 0 0 0
REAL ()) 240 0 (241 242 243 244) () 239 () () () 0 0)
245 'linreg' 'statfunmod' '' 1 ((PROCEDURE UNKNOWN-INTENT MODULE-PROC
DECL UNKNOWN 0 0 SUBROUTINE IMPLICIT_PURE ALWAYS_EXPLICIT) (UNKNOWN 0 0
0 0 UNKNOWN ()) 246 0 (247 248 249 250 251 252) () 0 () () () 0 0)
253 'loglikelihoodratio' 'mfestmod' '' 1 ((PROCEDURE UNKNOWN-INTENT
MODULE-PROC DECL UNKNOWN 0 0 FUNCTION ALWAYS_EXPLICIT) (REAL 8 0 0 0
REAL ()) 254 0 (255 256 257 258) () 253 () () () 0 0)
3 'masked_swap_r' 'utilmod' '' 1 ((PROCEDURE UNKNOWN-INTENT MODULE-PROC
DECL UNKNOWN 0 0 SUBROUTINE IMPLICIT_PURE) (UNKNOWN 0 0 0 0 UNKNOWN ())
259 0 (260 261 262) () 0 () () () 0 0)
263 'mathmod' 'mathmod' '' 1 ((MODULE UNKNOWN-INTENT UNKNOWN-PROC
UNKNOWN UNKNOWN 0 0) (UNKNOWN 0 0 0 0 UNKNOWN ()) 0 0 () () 0 () () () 0
0)
264 'mfestmod' 'mfestmod' '' 1 ((MODULE UNKNOWN-INTENT UNKNOWN-PROC
UNKNOWN UNKNOWN 0 0) (UNKNOWN 0 0 0 0 UNKNOWN ()) 0 0 () () 0 () () () 0
0)
265 'mffunmod' 'mffunmod' '' 1 ((MODULE UNKNOWN-INTENT UNKNOWN-PROC
UNKNOWN UNKNOWN 0 0) (UNKNOWN 0 0 0 0 UNKNOWN ()) 0 0 () () 0 () () () 0
0)
266 'mlest' 'mfestmod' '' 1 ((PROCEDURE UNKNOWN-INTENT MODULE-PROC DECL
UNKNOWN 0 0 SUBROUTINE ALWAYS_EXPLICIT) (UNKNOWN 0 0 0 0 UNKNOWN ()) 267
0 (268 269 270 271) () 0 () () () 0 0)
272 'mmaxtest' 'mfestmod' '' 1 ((PROCEDURE UNKNOWN-INTENT MODULE-PROC
DECL UNKNOWN 0 0 FUNCTION IMPLICIT_PURE ALWAYS_EXPLICIT) (REAL 8 0 0 0
REAL ()) 273 0 (274 275 276 277) () 272 () () () 0 0)
278 'modmlest' 'mfestmod' '' 1 ((PROCEDURE UNKNOWN-INTENT MODULE-PROC
DECL UNKNOWN 0 0 SUBROUTINE ALWAYS_EXPLICIT) (UNKNOWN 0 0 0 0 UNKNOWN ())
279 0 (280 281 282 283) () 0 () () () 0 0)
284 'moranpl' 'mfestmod' '' 1 ((PROCEDURE UNKNOWN-INTENT MODULE-PROC
DECL UNKNOWN 0 0 FUNCTION ALWAYS_EXPLICIT) (REAL 8 0 0 0 REAL ()) 285 0
(286 287 288 289) () 284 () () () 0 0)
290 'numberoflines' 'utilmod' '' 1 ((PROCEDURE UNKNOWN-INTENT
MODULE-PROC DECL UNKNOWN 0 0 FUNCTION) (INTEGER 4 0 0 0 INTEGER ()) 291
0 (292) () 290 () () () 0 0)
293 'path' 'utilmod' '' 1 ((PROCEDURE UNKNOWN-INTENT MODULE-PROC DECL
UNKNOWN 0 0 FUNCTION) (CHARACTER 1 0 0 0 CHARACTER ((CONSTANT (INTEGER 4
0 0 0 INTEGER ()) 0 '50'))) 294 0 (295 296) () 293 () () () 0 0)
297 'plpdf' 'mffunmod' '' 1 ((PROCEDURE UNKNOWN-INTENT MODULE-PROC DECL
UNKNOWN 0 0 FUNCTION IMPLICIT_PURE) (REAL 8 0 0 0 REAL ()) 298 0 (299
300 301) () 297 () () () 0 0)
302 'pltpdf' 'mffunmod' '' 1 ((PROCEDURE UNKNOWN-INTENT MODULE-PROC DECL
UNKNOWN 0 0 FUNCTION IMPLICIT_PURE) (REAL 8 0 0 0 REAL ()) 303 0 (304
305 306 307) () 302 () () () 0 0)
308 'ppresidual' 'mfestmod' '' 1 ((PROCEDURE UNKNOWN-INTENT MODULE-PROC
DECL UNKNOWN 0 0 FUNCTION ALWAYS_EXPLICIT) (REAL 8 0 0 0 REAL ()) 309 0
(310 311 312 313) () 308 () () () 0 0)
314 'ran' 'mathmod' '' 1 ((PROCEDURE UNKNOWN-INTENT MODULE-PROC DECL
UNKNOWN 0 0 FUNCTION) (REAL 8 0 0 0 REAL ()) 315 0 (316) () 314 () () ()
0 0)
317 'ran2' 'mathmod' '' 1 ((PROCEDURE UNKNOWN-INTENT MODULE-PROC DECL
UNKNOWN 0 0 FUNCTION) (REAL 8 0 0 0 REAL ()) 318 0 (319) () 317 () () ()
0 0)
320 'rsquaredpl' 'mfestmod' '' 1 ((PROCEDURE UNKNOWN-INTENT MODULE-PROC
DECL UNKNOWN 0 0 FUNCTION ALWAYS_EXPLICIT) (REAL 8 0 0 0 REAL ()) 321 0
(322 323 324 325) () 320 () () () 0 0)
326 'shapirowilkpl' 'mfestmod' '' 1 ((PROCEDURE UNKNOWN-INTENT
MODULE-PROC DECL UNKNOWN 0 0 FUNCTION ALWAYS_EXPLICIT) (REAL 8 0 0 0
REAL ()) 327 0 (328 329 330 331) () 326 () () () 0 0)
332 'sort' 'mathmod' '' 1 ((PROCEDURE UNKNOWN-INTENT MODULE-PROC DECL
UNKNOWN 0 0 SUBROUTINE ALWAYS_EXPLICIT) (UNKNOWN 0 0 0 0 UNKNOWN ()) 333
0 (334) () 0 () () () 0 0)
335 'sort_quick' 'mathmod' '' 1 ((PROCEDURE UNKNOWN-INTENT MODULE-PROC
DECL UNKNOWN 0 0 SUBROUTINE ALWAYS_EXPLICIT) (UNKNOWN 0 0 0 0 UNKNOWN ())
336 0 (337) () 0 () () () 0 0)
338 'stabquant' 'mfestmod' '' 1 ((PROCEDURE UNKNOWN-INTENT MODULE-PROC
DECL UNKNOWN 0 0 FUNCTION) (REAL 8 0 0 0 REAL ()) 339 0 (340) () 338 ()
() () 0 0)
341 'statfunmod' 'statfunmod' '' 1 ((MODULE UNKNOWN-INTENT UNKNOWN-PROC
UNKNOWN UNKNOWN 0 0) (UNKNOWN 0 0 0 0 UNKNOWN ()) 0 0 () () 0 () () () 0
0)
342 'stddeviation' 'statfunmod' '' 1 ((PROCEDURE UNKNOWN-INTENT
MODULE-PROC DECL UNKNOWN 0 0 FUNCTION IMPLICIT_PURE ALWAYS_EXPLICIT) (
REAL 8 0 0 0 REAL ()) 343 0 (344) () 342 () () () 0 0)
4 'swap_r' 'utilmod' '' 1 ((PROCEDURE UNKNOWN-INTENT MODULE-PROC DECL
UNKNOWN 0 0 SUBROUTINE IMPLICIT_PURE) (UNKNOWN 0 0 0 0 UNKNOWN ()) 345 0
(346 347) () 0 () () () 0 0)
2 'swap_rv' 'utilmod' '' 1 ((PROCEDURE UNKNOWN-INTENT MODULE-PROC DECL
UNKNOWN 0 0 SUBROUTINE IMPLICIT_PURE ALWAYS_EXPLICIT) (UNKNOWN 0 0 0 0
UNKNOWN ()) 348 0 (349 350) () 0 () () () 0 0)
351 'utilmod' 'utilmod' '' 1 ((MODULE UNKNOWN-INTENT UNKNOWN-PROC
UNKNOWN UNKNOWN 0 0) (UNKNOWN 0 0 0 0 UNKNOWN ()) 0 0 () () 0 () () () 0
0)
352 'varbinestchi' 'mfestmod' '' 1 ((PROCEDURE UNKNOWN-INTENT
MODULE-PROC DECL UNKNOWN 0 0 SUBROUTINE ALWAYS_EXPLICIT) (UNKNOWN 0 0 0
0 UNKNOWN ()) 353 0 (354 355 356 357) () 0 () () () 0 0)
358 'wsquaredpl' 'mfestmod' '' 1 ((PROCEDURE UNKNOWN-INTENT MODULE-PROC
DECL UNKNOWN 0 0 FUNCTION ALWAYS_EXPLICIT) (REAL 8 0 0 0 REAL ()) 359 0
(360 361 362 363) () 358 () () () 0 0)
364 'wsquaredsppl' 'mfestmod' '' 1 ((PROCEDURE UNKNOWN-INTENT
MODULE-PROC DECL UNKNOWN 0 0 FUNCTION ALWAYS_EXPLICIT) (REAL 8 0 0 0
REAL ()) 365 0 (366 367 368 369) () 364 () () () 0 0)
370 'zpl' 'mfestmod' '' 1 ((PROCEDURE UNKNOWN-INTENT MODULE-PROC DECL
UNKNOWN 0 0 FUNCTION ALWAYS_EXPLICIT) (REAL 8 0 0 0 REAL ()) 371 0 (372
373 374 375) () 370 () () () 0 0)
376 'zqpl' 'mfestmod' '' 1 ((PROCEDURE UNKNOWN-INTENT MODULE-PROC DECL
UNKNOWN 0 0 FUNCTION ALWAYS_EXPLICIT) (REAL 8 0 0 0 REAL ()) 377 0 (378
379 380 381) () 376 () () () 0 0)
382 'zstarpl' 'mfestmod' '' 1 ((PROCEDURE UNKNOWN-INTENT MODULE-PROC
DECL UNKNOWN 0 0 FUNCTION ALWAYS_EXPLICIT) (REAL 8 0 0 0 REAL ()) 383 0
(384 385 386 387) () 382 () () () 0 0)
388 'zstarstarpl' 'mfestmod' '' 1 ((PROCEDURE UNKNOWN-INTENT MODULE-PROC
DECL UNKNOWN 0 0 FUNCTION ALWAYS_EXPLICIT) (REAL 8 0 0 0 REAL ()) 389 0
(390 391 392 393) () 388 () () () 0 0)
7 'p' '' '' 6 ((VARIABLE INOUT UNKNOWN-PROC UNKNOWN UNKNOWN 0 0
DIMENSION DUMMY) (REAL 8 0 0 0 REAL ()) 0 0 () (2 0 ASSUMED_SHAPE (
CONSTANT (INTEGER 4 0 0 0 INTEGER ()) 0 '1') () (CONSTANT (INTEGER 4 0 0
0 INTEGER ()) 0 '1') ()) 0 () () () 0 0)
8 'y' '' '' 6 ((VARIABLE INOUT UNKNOWN-PROC UNKNOWN UNKNOWN 0 0
DIMENSION DUMMY) (REAL 8 0 0 0 REAL ()) 0 0 () (1 0 ASSUMED_SHAPE (
CONSTANT (INTEGER 4 0 0 0 INTEGER ()) 0 '1') ()) 0 () () () 0 0)
9 'ftol' '' '' 6 ((VARIABLE IN UNKNOWN-PROC UNKNOWN UNKNOWN 0 0 DUMMY) (
REAL 8 0 0 0 REAL ()) 0 0 () () 0 () () () 0 0)
10 'iter' '' '' 6 ((VARIABLE OUT UNKNOWN-PROC UNKNOWN UNKNOWN 0 0 DUMMY)
(INTEGER 4 0 0 0 INTEGER ()) 0 0 () () 0 () () () 0 0)
11 'maxdat' '' '' 6 ((VARIABLE UNKNOWN-INTENT UNKNOWN-PROC UNKNOWN
UNKNOWN 0 0 DUMMY) (REAL 8 0 0 0 REAL ()) 0 0 () () 0 () () () 0 0)
12 'data' '' '' 6 ((VARIABLE UNKNOWN-INTENT UNKNOWN-PROC UNKNOWN UNKNOWN
0 0 DIMENSION DUMMY) (REAL 8 0 0 0 REAL ()) 0 0 () (1 0 ASSUMED_SHAPE (
CONSTANT (INTEGER 4 0 0 0 INTEGER ()) 0 '1') ()) 0 () () () 0 0)
15 'p' '' '' 14 ((VARIABLE INOUT UNKNOWN-PROC UNKNOWN UNKNOWN 0 0
DIMENSION DUMMY) (REAL 8 0 0 0 REAL ()) 0 0 () (2 0 ASSUMED_SHAPE (
CONSTANT (INTEGER 4 0 0 0 INTEGER ()) 0 '1') () (CONSTANT (INTEGER 4 0 0
0 INTEGER ()) 0 '1') ()) 0 () () () 0 0)
16 'y' '' '' 14 ((VARIABLE INOUT UNKNOWN-PROC UNKNOWN UNKNOWN 0 0
DIMENSION DUMMY) (REAL 8 0 0 0 REAL ()) 0 0 () (1 0 ASSUMED_SHAPE (
CONSTANT (INTEGER 4 0 0 0 INTEGER ()) 0 '1') ()) 0 () () () 0 0)
17 'ftol' '' '' 14 ((VARIABLE IN UNKNOWN-PROC UNKNOWN UNKNOWN 0 0 DUMMY)
(REAL 8 0 0 0 REAL ()) 0 0 () () 0 () () () 0 0)
18 'iter' '' '' 14 ((VARIABLE OUT UNKNOWN-PROC UNKNOWN UNKNOWN 0 0 DUMMY)
(INTEGER 4 0 0 0 INTEGER ()) 0 0 () () 0 () () () 0 0)
19 'counts' '' '' 14 ((VARIABLE IN UNKNOWN-PROC UNKNOWN UNKNOWN 0 0
DIMENSION DUMMY) (REAL 8 0 0 0 REAL ()) 0 0 () (1 0 ASSUMED_SHAPE (
CONSTANT (INTEGER 4 0 0 0 INTEGER ()) 0 '1') ()) 0 () () () 0 0)
20 'limits' '' '' 14 ((VARIABLE IN UNKNOWN-PROC UNKNOWN UNKNOWN 0 0
DIMENSION DUMMY) (REAL 8 0 0 0 REAL ()) 0 0 () (1 0 EXPLICIT (CONSTANT (
INTEGER 4 0 0 0 INTEGER ()) 0 '1') (OP (INTEGER 4 0 0 0 INTEGER ()) 0
PLUS (FUNCTION (INTEGER 4 0 0 0 INTEGER ()) 0 394 (('' (VARIABLE (REAL 8
0 0 0 REAL ()) 1 19 ((ARRAY (FULL 1 2))))) ('' ()) ('' ())) '' 0 'size')
(CONSTANT (INTEGER 4 0 0 0 INTEGER ()) 0 '1'))) 0 () () () 0 0)
23 'x' '' '' 22 ((VARIABLE INOUT UNKNOWN-PROC UNKNOWN UNKNOWN 0 0
DIMENSION DUMMY) (REAL 8 0 0 0 REAL ()) 0 0 () (1 0 ASSUMED_SHAPE (
CONSTANT (INTEGER 4 0 0 0 INTEGER ()) 0 '1') ()) 0 () () () 0 0)
24 'beta' '' '' 22 ((VARIABLE IN UNKNOWN-PROC UNKNOWN UNKNOWN 0 0 DUMMY)
(REAL 8 0 0 0 REAL ()) 0 0 () () 0 () () () 0 0)
25 'pmin' '' '' 22 ((VARIABLE IN UNKNOWN-PROC UNKNOWN UNKNOWN 0 0 DUMMY)
(REAL 8 0 0 0 REAL ()) 0 0 () () 0 () () () 0 0)
26 'pmax' '' '' 22 ((VARIABLE IN UNKNOWN-PROC UNKNOWN UNKNOWN 0 0 DUMMY)
(REAL 8 0 0 0 REAL ()) 0 0 () () 0 () () () 0 0)
29 'x' '' '' 28 ((VARIABLE IN UNKNOWN-PROC UNKNOWN UNKNOWN 0 0 DIMENSION
DUMMY) (REAL 8 0 0 0 REAL ()) 0 0 () (1 0 ASSUMED_SHAPE (CONSTANT (
INTEGER 4 0 0 0 INTEGER ()) 0 '1') ()) 0 () () () 0 0)
32 'x' '' '' 31 ((VARIABLE IN UNKNOWN-PROC UNKNOWN UNKNOWN 0 0 DIMENSION
DUMMY) (REAL 8 0 0 0 REAL ()) 0 0 () (1 0 ASSUMED_SHAPE (CONSTANT (
INTEGER 4 0 0 0 INTEGER ()) 0 '1') ()) 0 () () () 0 0)
33 'm' '' '' 31 ((VARIABLE IN UNKNOWN-PROC UNKNOWN UNKNOWN 0 0 DIMENSION
OPTIONAL DUMMY) (LOGICAL 4 0 0 0 LOGICAL ()) 0 0 () (1 0 ASSUMED_SHAPE (
CONSTANT (INTEGER 4 0 0 0 INTEGER ()) 0 '1') ()) 0 () () () 0 0)
36 'x' '' '' 35 ((VARIABLE IN UNKNOWN-PROC UNKNOWN UNKNOWN 0 0 DIMENSION
DUMMY) (REAL 8 0 0 0 REAL ()) 0 0 () (1 0 ASSUMED_SHAPE (CONSTANT (
INTEGER 4 0 0 0 INTEGER ()) 0 '1') ()) 0 () () () 0 0)
37 'beta' '' '' 35 ((VARIABLE OUT UNKNOWN-PROC UNKNOWN UNKNOWN 0 0 DUMMY)
(REAL 8 0 0 0 REAL ()) 0 0 () () 0 () () () 0 0)
38 'xmin' '' '' 35 ((VARIABLE OUT UNKNOWN-PROC UNKNOWN UNKNOWN 0 0 DUMMY)
(REAL 8 0 0 0 REAL ()) 0 0 () () 0 () () () 0 0)
41 'x' '' '' 40 ((VARIABLE IN UNKNOWN-PROC UNKNOWN UNKNOWN 0 0 DIMENSION
DUMMY) (REAL 8 0 0 0 REAL ()) 0 0 () (1 0 ASSUMED_SHAPE (CONSTANT (
INTEGER 4 0 0 0 INTEGER ()) 0 '1') ()) 0 () () () 0 0)
42 'beta' '' '' 40 ((VARIABLE OUT UNKNOWN-PROC UNKNOWN UNKNOWN 0 0 DUMMY)
(REAL 8 0 0 0 REAL ()) 0 0 () () 0 () () () 0 0)
43 'xmin' '' '' 40 ((VARIABLE OUT UNKNOWN-PROC UNKNOWN UNKNOWN 0 0 DUMMY)
(REAL 8 0 0 0 REAL ()) 0 0 () () 0 () () () 0 0)
44 'xmax' '' '' 40 ((VARIABLE OUT UNKNOWN-PROC UNKNOWN UNKNOWN 0 0 DUMMY)
(REAL 8 0 0 0 REAL ()) 0 0 () () 0 () () () 0 0)
47 'x' '' '' 46 ((VARIABLE IN UNKNOWN-PROC UNKNOWN UNKNOWN 0 0 DIMENSION
DUMMY) (REAL 8 0 0 0 REAL ()) 0 0 () (1 0 ASSUMED_SHAPE (CONSTANT (
INTEGER 4 0 0 0 INTEGER ()) 0 '1') ()) 0 () () () 0 0)
48 'beta' '' '' 46 ((VARIABLE OUT UNKNOWN-PROC UNKNOWN UNKNOWN 0 0 DUMMY)
(REAL 8 0 0 0 REAL ()) 0 0 () () 0 () () () 0 0)
49 'xmin' '' '' 46 ((VARIABLE OUT UNKNOWN-PROC UNKNOWN UNKNOWN 0 0 DUMMY)
(REAL 8 0 0 0 REAL ()) 0 0 () () 0 () () () 0 0)
50 'xmax' '' '' 46 ((VARIABLE OUT UNKNOWN-PROC UNKNOWN UNKNOWN 0 0 DUMMY)
(REAL 8 0 0 0 REAL ()) 0 0 () () 0 () () () 0 0)
53 'nin' '' '' 52 ((VARIABLE IN UNKNOWN-PROC UNKNOWN UNKNOWN 0 0 DUMMY)
(INTEGER 4 0 0 0 INTEGER ()) 0 0 () () 0 () () () 0 0)
54 'kin' '' '' 52 ((VARIABLE IN UNKNOWN-PROC UNKNOWN UNKNOWN 0 0 DUMMY)
(INTEGER 4 0 0 0 INTEGER ()) 0 0 () () 0 () () () 0 0)
57 'x' '' '' 56 ((VARIABLE IN UNKNOWN-PROC UNKNOWN UNKNOWN 0 0 DUMMY) (
REAL 8 0 0 0 REAL ()) 0 0 () () 0 () () () 0 0)
58 'eta' '' '' 56 ((VARIABLE IN UNKNOWN-PROC UNKNOWN UNKNOWN 0 0 DUMMY)
(REAL 8 0 0 0 REAL ()) 0 0 () () 0 () () () 0 0)
59 'tau' '' '' 56 ((VARIABLE IN UNKNOWN-PROC UNKNOWN UNKNOWN 0 0 DUMMY)
(REAL 8 0 0 0 REAL ()) 0 0 () () 0 () () () 0 0)
60 'lambda' '' '' 56 ((VARIABLE IN UNKNOWN-PROC UNKNOWN UNKNOWN 0 0
DUMMY) (REAL 8 0 0 0 REAL ()) 0 0 () () 0 () () () 0 0)
63 'c1' '' '' 62 ((VARIABLE UNKNOWN-INTENT UNKNOWN-PROC UNKNOWN UNKNOWN
0 0 DUMMY) (CHARACTER 1 0 0 0 CHARACTER ((CONSTANT (INTEGER 4 0 0 0
INTEGER ()) 0 '50'))) 0 0 () () 0 () () () 0 0)
64 'c2' '' '' 62 ((VARIABLE UNKNOWN-INTENT UNKNOWN-PROC UNKNOWN UNKNOWN
0 0 DUMMY) (CHARACTER 1 0 0 0 CHARACTER ((CONSTANT (INTEGER 4 0 0 0
INTEGER ()) 0 '50'))) 0 0 () () 0 () () () 0 0)
67 'data' '' '' 66 ((VARIABLE IN UNKNOWN-PROC UNKNOWN UNKNOWN 0 0
DIMENSION DUMMY) (REAL 8 0 0 0 REAL ()) 0 0 () (1 0 ASSUMED_SHAPE (
CONSTANT (INTEGER 4 0 0 0 INTEGER ()) 0 '1') ()) 0 () () () 0 0)
68 'beta' '' '' 66 ((VARIABLE OUT UNKNOWN-PROC UNKNOWN UNKNOWN 0 0 DUMMY)
(REAL 8 0 0 0 REAL ()) 0 0 () () 0 () () () 0 0)
69 'mmine' '' '' 66 ((VARIABLE OUT UNKNOWN-PROC UNKNOWN UNKNOWN 0 0
DUMMY) (REAL 8 0 0 0 REAL ()) 0 0 () () 0 () () () 0 0)
70 'mmaxe' '' '' 66 ((VARIABLE OUT UNKNOWN-PROC UNKNOWN UNKNOWN 0 0
DUMMY) (REAL 8 0 0 0 REAL ()) 0 0 () () 0 () () () 0 0)
73 'data' '' '' 72 ((VARIABLE IN UNKNOWN-PROC UNKNOWN UNKNOWN 0 0
DIMENSION DUMMY) (REAL 8 0 0 0 REAL ()) 0 0 () (1 0 ASSUMED_SHAPE (
CONSTANT (INTEGER 4 0 0 0 INTEGER ()) 0 '1') ()) 0 () () () 0 0)
74 'beta' '' '' 72 ((VARIABLE OUT UNKNOWN-PROC UNKNOWN UNKNOWN 0 0 DUMMY)
(REAL 8 0 0 0 REAL ()) 0 0 () () 0 () () () 0 0)
75 'xmin' '' '' 72 ((VARIABLE OUT UNKNOWN-PROC UNKNOWN UNKNOWN 0 0 DUMMY)
(REAL 8 0 0 0 REAL ()) 0 0 () () 0 () () () 0 0)
76 'xmax' '' '' 72 ((VARIABLE OUT UNKNOWN-PROC UNKNOWN UNKNOWN 0 0 DUMMY)
(REAL 8 0 0 0 REAL ()) 0 0 () () 0 () () () 0 0)
79 'counts' '' '' 78 ((VARIABLE IN UNKNOWN-PROC UNKNOWN UNKNOWN 0 0
DIMENSION DUMMY) (REAL 8 0 0 0 REAL ()) 0 0 () (1 0 ASSUMED_SHAPE (
CONSTANT (INTEGER 4 0 0 0 INTEGER ()) 0 '1') ()) 0 () () () 0 0)
80 'limits' '' '' 78 ((VARIABLE IN UNKNOWN-PROC UNKNOWN UNKNOWN 0 0
DIMENSION DUMMY) (REAL 8 0 0 0 REAL ()) 0 0 () (1 0 EXPLICIT (CONSTANT (
INTEGER 4 0 0 0 INTEGER ()) 0 '1') (OP (INTEGER 4 0 0 0 INTEGER ()) 0
PLUS (FUNCTION (INTEGER 4 0 0 0 INTEGER ()) 0 395 (('' (VARIABLE (REAL 8
0 0 0 REAL ()) 1 79 ((ARRAY (FULL 1 2))))) ('' ()) ('' ())) '' 0 'size')
(CONSTANT (INTEGER 4 0 0 0 INTEGER ()) 0 '1'))) 0 () () () 0 0)
81 'beta' '' '' 78 ((VARIABLE OUT UNKNOWN-PROC UNKNOWN UNKNOWN 0 0 DUMMY)
(REAL 8 0 0 0 REAL ()) 0 0 () () 0 () () () 0 0)
82 'k' '' '' 78 ((VARIABLE OUT UNKNOWN-PROC UNKNOWN UNKNOWN 0 0 DUMMY) (
REAL 8 0 0 0 REAL ()) 0 0 () () 0 () () () 0 0)
85 'x' '' '' 84 ((VARIABLE IN UNKNOWN-PROC UNKNOWN UNKNOWN 0 0 DIMENSION
DUMMY) (REAL 8 0 0 0 REAL ()) 0 0 () (1 0 EXPLICIT (CONSTANT (INTEGER 4
0 0 0 INTEGER ()) 0 '1') (CONSTANT (INTEGER 4 0 0 0 INTEGER ()) 0 '2'))
0 () () () 0 0)
86 'counts' '' '' 84 ((VARIABLE IN UNKNOWN-PROC UNKNOWN UNKNOWN 0 0
DIMENSION DUMMY) (REAL 8 0 0 0 REAL ()) 0 0 () (1 0 ASSUMED_SHAPE (
CONSTANT (INTEGER 4 0 0 0 INTEGER ()) 0 '1') ()) 0 () () () 0 0)
87 'limits' '' '' 84 ((VARIABLE IN UNKNOWN-PROC UNKNOWN UNKNOWN 0 0
DIMENSION DUMMY) (REAL 8 0 0 0 REAL ()) 0 0 () (1 0 EXPLICIT (CONSTANT (
INTEGER 4 0 0 0 INTEGER ()) 0 '1') (OP (INTEGER 4 0 0 0 INTEGER ()) 0
PLUS (FUNCTION (INTEGER 4 0 0 0 INTEGER ()) 0 396 (('' (VARIABLE (REAL 8
0 0 0 REAL ()) 1 86 ((ARRAY (FULL 1 2))))) ('' ()) ('' ())) '' 0 'size')
(CONSTANT (INTEGER 4 0 0 0 INTEGER ()) 0 '1'))) 0 () () () 0 0)
90 'n' '' '' 89 ((VARIABLE IN UNKNOWN-PROC UNKNOWN UNKNOWN 0 0 DUMMY) (
INTEGER 4 0 0 0 INTEGER ()) 0 0 () () 0 () () () 0 0)
91 'data' '' '' 89 ((VARIABLE IN UNKNOWN-PROC UNKNOWN UNKNOWN 0 0
DIMENSION DUMMY) (REAL 8 0 0 0 REAL ()) 0 0 () (1 0 ASSUMED_SHAPE (
CONSTANT (INTEGER 4 0 0 0 INTEGER ()) 0 '1') ()) 0 () () () 0 0)
92 'beta' '' '' 89 ((VARIABLE OUT UNKNOWN-PROC UNKNOWN UNKNOWN 0 0 DUMMY)
(REAL 8 0 0 0 REAL ()) 0 0 () () 0 () () () 0 0)
95 'dia' '' '' 94 ((VARIABLE UNKNOWN-INTENT UNKNOWN-PROC UNKNOWN UNKNOWN
0 0 DUMMY) (LOGICAL 4 0 0 0 LOGICAL ()) 0 0 () () 0 () () () 0 0)
96 'text' '' '' 94 ((VARIABLE UNKNOWN-INTENT UNKNOWN-PROC UNKNOWN
UNKNOWN 0 0 DUMMY) (CHARACTER 1 0 0 0 CHARACTER ((CONSTANT (INTEGER 4 0
0 0 INTEGER ()) 0 '100'))) 0 0 () () 0 () () () 0 0)
99 'x' '' '' 98 ((VARIABLE INOUT UNKNOWN-PROC UNKNOWN UNKNOWN 0 0
DIMENSION DUMMY) (REAL 8 0 0 0 REAL ()) 0 0 () (1 0 ASSUMED_SHAPE (
CONSTANT (INTEGER 4 0 0 0 INTEGER ()) 0 '1') ()) 0 () () () 0 0)
100 'beta' '' '' 98 ((VARIABLE IN UNKNOWN-PROC UNKNOWN UNKNOWN 0 0 DUMMY)
(REAL 8 0 0 0 REAL ()) 0 0 () () 0 () () () 0 0)
101 'pmin' '' '' 98 ((VARIABLE IN UNKNOWN-PROC UNKNOWN UNKNOWN 0 0 DUMMY)
(REAL 8 0 0 0 REAL ()) 0 0 () () 0 () () () 0 0)
102 'pmax' '' '' 98 ((VARIABLE IN UNKNOWN-PROC UNKNOWN UNKNOWN 0 0 DUMMY)
(REAL 8 0 0 0 REAL ()) 0 0 () () 0 () () () 0 0)
105 'string' '' '' 104 ((VARIABLE IN UNKNOWN-PROC UNKNOWN UNKNOWN 0 0
DUMMY) (CHARACTER 1 0 0 0 CHARACTER (())) 0 0 () () 0 () () () 0 0)
106 'i' '' '' 104 ((VARIABLE IN UNKNOWN-PROC UNKNOWN UNKNOWN 0 0
OPTIONAL DUMMY) (INTEGER 4 0 0 0 INTEGER ()) 0 0 () () 0 () () () 0 0)
109 'x' '' '' 108 ((VARIABLE IN UNKNOWN-PROC UNKNOWN UNKNOWN 0 0 DUMMY)
(REAL 8 0 0 0 REAL ()) 0 0 () () 0 () () () 0 0)
110 'theta' '' '' 108 ((VARIABLE IN UNKNOWN-PROC UNKNOWN UNKNOWN 0 0
DUMMY) (REAL 8 0 0 0 REAL ()) 0 0 () () 0 () () () 0 0)
111 'a' '' '' 108 ((VARIABLE IN UNKNOWN-PROC UNKNOWN UNKNOWN 0 0 DUMMY)
(REAL 8 0 0 0 REAL ()) 0 0 () () 0 () () () 0 0)
112 'b' '' '' 108 ((VARIABLE IN UNKNOWN-PROC UNKNOWN UNKNOWN 0 0 DUMMY)
(REAL 8 0 0 0 REAL ()) 0 0 () () 0 () () () 0 0)
115 'n' '' '' 114 ((VARIABLE IN UNKNOWN-PROC UNKNOWN UNKNOWN 0 0 DUMMY)
(INTEGER 4 0 0 0 INTEGER ()) 0 0 () () 0 () () () 0 0)
118 'x' '' '' 117 ((VARIABLE UNKNOWN-INTENT UNKNOWN-PROC UNKNOWN UNKNOWN
0 0 DUMMY) (REAL 8 0 0 0 REAL ()) 0 0 () () 0 () () () 0 0)
119 'mu' '' '' 117 ((VARIABLE UNKNOWN-INTENT UNKNOWN-PROC UNKNOWN
UNKNOWN 0 0 DUMMY) (REAL 8 0 0 0 REAL ()) 0 0 () () 0 () () () 0 0)
120 'sigma' '' '' 117 ((VARIABLE UNKNOWN-INTENT UNKNOWN-PROC UNKNOWN
UNKNOWN 0 0 DUMMY) (REAL 8 0 0 0 REAL ()) 0 0 () () 0 () () () 0 0)
123 'idum' '' '' 122 ((VARIABLE INOUT UNKNOWN-PROC UNKNOWN UNKNOWN 0 0
DUMMY) (INTEGER 4 0 0 0 INTEGER ()) 0 0 () () 0 () () () 0 0)
124 'a' '' '' 122 ((VARIABLE IN UNKNOWN-PROC UNKNOWN UNKNOWN 0 0 DUMMY)
(REAL 8 0 0 0 REAL ()) 0 0 () () 0 () () () 0 0)
125 'b' '' '' 122 ((VARIABLE IN UNKNOWN-PROC UNKNOWN UNKNOWN 0 0 DUMMY)
(REAL 8 0 0 0 REAL ()) 0 0 () () 0 () () () 0 0)
128 'idum' '' '' 127 ((VARIABLE INOUT UNKNOWN-PROC UNKNOWN UNKNOWN 0 0
DUMMY) (INTEGER 4 0 0 0 INTEGER ()) 0 0 () () 0 () () () 0 0)
129 'beta' '' '' 127 ((VARIABLE IN UNKNOWN-PROC UNKNOWN UNKNOWN 0 0
DUMMY) (REAL 8 0 0 0 REAL ()) 0 0 () () 0 () () () 0 0)
130 'pmin' '' '' 127 ((VARIABLE IN UNKNOWN-PROC UNKNOWN UNKNOWN 0 0
DUMMY) (REAL 8 0 0 0 REAL ()) 0 0 () () 0 () () () 0 0)
131 'pmax' '' '' 127 ((VARIABLE IN UNKNOWN-PROC UNKNOWN UNKNOWN 0 0
DUMMY) (REAL 8 0 0 0 REAL ()) 0 0 () () 0 () () () 0 0)
134 'x' '' '' 133 ((VARIABLE IN UNKNOWN-PROC UNKNOWN UNKNOWN 0 0
DIMENSION DUMMY) (REAL 8 0 0 0 REAL ()) 0 0 () (1 0 ASSUMED_SHAPE (
CONSTANT (INTEGER 4 0 0 0 INTEGER ()) 0 '1') ()) 0 () () () 0 0)
135 'beta' '' '' 133 ((VARIABLE IN UNKNOWN-PROC UNKNOWN UNKNOWN 0 0
DUMMY) (REAL 8 0 0 0 REAL ()) 0 0 () () 0 () () () 0 0)
136 'pmin' '' '' 133 ((VARIABLE IN UNKNOWN-PROC UNKNOWN UNKNOWN 0 0
DUMMY) (REAL 8 0 0 0 REAL ()) 0 0 () () 0 () () () 0 0)
137 'pmax' '' '' 133 ((VARIABLE IN UNKNOWN-PROC UNKNOWN UNKNOWN 0 0
DUMMY) (REAL 8 0 0 0 REAL ()) 0 0 () () 0 () () () 0 0)
140 'x' '' '' 139 ((VARIABLE UNKNOWN-INTENT UNKNOWN-PROC UNKNOWN UNKNOWN
0 0 DIMENSION DUMMY) (REAL 8 0 0 0 REAL ()) 0 0 () (1 0 ASSUMED_SHAPE (
CONSTANT (INTEGER 4 0 0 0 INTEGER ()) 0 '1') ()) 0 () () () 0 0)
141 'limits' '' '' 139 ((VARIABLE UNKNOWN-INTENT UNKNOWN-PROC UNKNOWN
UNKNOWN 0 0 DIMENSION DUMMY) (REAL 8 0 0 0 REAL ()) 0 0 () (1 0
ASSUMED_SHAPE (CONSTANT (INTEGER 4 0 0 0 INTEGER ()) 0 '1') ()) 0 () ()
() 0 0)
142 'counts' '' '' 139 ((VARIABLE UNKNOWN-INTENT UNKNOWN-PROC UNKNOWN
UNKNOWN 0 0 DIMENSION DUMMY) (REAL 8 0 0 0 REAL ()) 0 0 () (1 0
ASSUMED_SHAPE (CONSTANT (INTEGER 4 0 0 0 INTEGER ()) 0 '1') ()) 0 () ()
() 0 0)
143 'intervals' '' '' 139 ((VARIABLE UNKNOWN-INTENT UNKNOWN-PROC UNKNOWN
UNKNOWN 0 0 DIMENSION DUMMY) (REAL 8 0 0 0 REAL ()) 0 0 () (1 0
ASSUMED_SHAPE (CONSTANT (INTEGER 4 0 0 0 INTEGER ()) 0 '1') ()) 0 () ()
() 0 0)
146 'x' '' '' 145 ((VARIABLE IN UNKNOWN-PROC UNKNOWN UNKNOWN 0 0
DIMENSION DUMMY) (REAL 8 0 0 0 REAL ()) 0 0 () (1 0 ASSUMED_SHAPE (
CONSTANT (INTEGER 4 0 0 0 INTEGER ()) 0 '1') ()) 0 () () () 0 0)
149 'x' '' '' 148 ((VARIABLE IN UNKNOWN-PROC UNKNOWN UNKNOWN 0 0
DIMENSION DUMMY) (REAL 8 0 0 0 REAL ()) 0 0 () (1 0 ASSUMED_SHAPE (
CONSTANT (INTEGER 4 0 0 0 INTEGER ()) 0 '1') ()) 0 () () () 0 0)
152 'x' '' '' 151 ((VARIABLE IN UNKNOWN-PROC UNKNOWN UNKNOWN 0 0 DUMMY)
(REAL 8 0 0 0 REAL ()) 0 0 () () 0 () () () 0 0)
153 'theta' '' '' 151 ((VARIABLE IN UNKNOWN-PROC UNKNOWN UNKNOWN 0 0
DUMMY) (REAL 8 0 0 0 REAL ()) 0 0 () () 0 () () () 0 0)
154 'a' '' '' 151 ((VARIABLE IN UNKNOWN-PROC UNKNOWN UNKNOWN 0 0 DUMMY)
(REAL 8 0 0 0 REAL ()) 0 0 () () 0 () () () 0 0)
155 'b' '' '' 151 ((VARIABLE IN UNKNOWN-PROC UNKNOWN UNKNOWN 0 0 DUMMY)
(REAL 8 0 0 0 REAL ()) 0 0 () () 0 () () () 0 0)
158 'm' '' '' 157 ((VARIABLE IN UNKNOWN-PROC UNKNOWN UNKNOWN 0 0 DUMMY)
(REAL 8 0 0 0 REAL ()) 0 0 () () 0 () () () 0 0)
159 'beta' '' '' 157 ((VARIABLE IN UNKNOWN-PROC UNKNOWN UNKNOWN 0 0
DUMMY) (REAL 8 0 0 0 REAL ()) 0 0 () () 0 () () () 0 0)
160 'pmin' '' '' 157 ((VARIABLE IN UNKNOWN-PROC UNKNOWN UNKNOWN 0 0
DUMMY) (REAL 8 0 0 0 REAL ()) 0 0 () () 0 () () () 0 0)
161 'pmax' '' '' 157 ((VARIABLE IN UNKNOWN-PROC UNKNOWN UNKNOWN 0 0
DUMMY) (REAL 8 0 0 0 REAL ()) 0 0 () () 0 () () () 0 0)
164 'x' '' '' 163 ((VARIABLE IN UNKNOWN-PROC UNKNOWN UNKNOWN 0 0 DUMMY)
(REAL 8 0 0 0 REAL ()) 0 0 () () 0 () () () 0 0)
165 'beta' '' '' 163 ((VARIABLE IN UNKNOWN-PROC UNKNOWN UNKNOWN 0 0
DUMMY) (REAL 8 0 0 0 REAL ()) 0 0 () () 0 () () () 0 0)
166 'pmin' '' '' 163 ((VARIABLE IN UNKNOWN-PROC UNKNOWN UNKNOWN 0 0
DUMMY) (REAL 8 0 0 0 REAL ()) 0 0 () () 0 () () () 0 0)
167 'pmax' '' '' 163 ((VARIABLE IN UNKNOWN-PROC UNKNOWN UNKNOWN 0 0
DUMMY) (REAL 8 0 0 0 REAL ()) 0 0 () () 0 () () () 0 0)
170 'x' '' '' 169 ((VARIABLE INOUT UNKNOWN-PROC UNKNOWN UNKNOWN 0 0
DIMENSION DUMMY) (REAL 8 0 0 0 REAL ()) 0 0 () (1 0 ASSUMED_SHAPE (
CONSTANT (INTEGER 4 0 0 0 INTEGER ()) 0 '1') ()) 0 () () () 0 0)
171 'beta' '' '' 169 ((VARIABLE IN UNKNOWN-PROC UNKNOWN UNKNOWN 0 0
DUMMY) (REAL 8 0 0 0 REAL ()) 0 0 () () 0 () () () 0 0)
172 'pmin' '' '' 169 ((VARIABLE IN UNKNOWN-PROC UNKNOWN UNKNOWN 0 0
DUMMY) (REAL 8 0 0 0 REAL ()) 0 0 () () 0 () () () 0 0)
173 'pmax' '' '' 169 ((VARIABLE IN UNKNOWN-PROC UNKNOWN UNKNOWN 0 0
DUMMY) (REAL 8 0 0 0 REAL ()) 0 0 () () 0 () () () 0 0)
176 'x' '' '' 175 ((VARIABLE INOUT UNKNOWN-PROC UNKNOWN UNKNOWN 0 0
DIMENSION DUMMY) (REAL 8 0 0 0 REAL ()) 0 0 () (1 0 ASSUMED_SHAPE (
CONSTANT (INTEGER 4 0 0 0 INTEGER ()) 0 '1') ()) 0 () () () 0 0)
177 'beta' '' '' 175 ((VARIABLE IN UNKNOWN-PROC UNKNOWN UNKNOWN 0 0
DUMMY) (REAL 8 0 0 0 REAL ()) 0 0 () () 0 () () () 0 0)
178 'pmin' '' '' 175 ((VARIABLE IN UNKNOWN-PROC UNKNOWN UNKNOWN 0 0
DUMMY) (REAL 8 0 0 0 REAL ()) 0 0 () () 0 () () () 0 0)
179 'pmax' '' '' 175 ((VARIABLE IN UNKNOWN-PROC UNKNOWN UNKNOWN 0 0
DUMMY) (REAL 8 0 0 0 REAL ()) 0 0 () () 0 () () () 0 0)
182 'x' '' '' 181 ((VARIABLE INOUT UNKNOWN-PROC UNKNOWN UNKNOWN 0 0
DIMENSION DUMMY) (REAL 8 0 0 0 REAL ()) 0 0 () (1 0 ASSUMED_SHAPE (
CONSTANT (INTEGER 4 0 0 0 INTEGER ()) 0 '1') ()) 0 () () () 0 0)
183 'beta' '' '' 181 ((VARIABLE IN UNKNOWN-PROC UNKNOWN UNKNOWN 0 0
DUMMY) (REAL 8 0 0 0 REAL ()) 0 0 () () 0 () () () 0 0)
184 'pmin' '' '' 181 ((VARIABLE IN UNKNOWN-PROC UNKNOWN UNKNOWN 0 0
DUMMY) (REAL 8 0 0 0 REAL ()) 0 0 () () 0 () () () 0 0)
185 'pmax' '' '' 181 ((VARIABLE IN UNKNOWN-PROC UNKNOWN UNKNOWN 0 0
DUMMY) (REAL 8 0 0 0 REAL ()) 0 0 () () 0 () () () 0 0)
188 'x' '' '' 187 ((VARIABLE INOUT UNKNOWN-PROC UNKNOWN UNKNOWN 0 0
DIMENSION DUMMY) (REAL 8 0 0 0 REAL ()) 0 0 () (1 0 ASSUMED_SHAPE (
CONSTANT (INTEGER 4 0 0 0 INTEGER ()) 0 '1') ()) 0 () () () 0 0)
189 'beta' '' '' 187 ((VARIABLE UNKNOWN-INTENT UNKNOWN-PROC UNKNOWN
UNKNOWN 0 0 DUMMY) (REAL 8 0 0 0 REAL ()) 0 0 () () 0 () () () 0 0)
190 'pmin' '' '' 187 ((VARIABLE UNKNOWN-INTENT UNKNOWN-PROC UNKNOWN
UNKNOWN 0 0 DUMMY) (REAL 8 0 0 0 REAL ()) 0 0 () () 0 () () () 0 0)
191 'pmax' '' '' 187 ((VARIABLE UNKNOWN-INTENT UNKNOWN-PROC UNKNOWN
UNKNOWN 0 0 DUMMY) (REAL 8 0 0 0 REAL ()) 0 0 () () 0 () () () 0 0)
194 'x' '' '' 193 ((VARIABLE INOUT UNKNOWN-PROC UNKNOWN UNKNOWN 0 0
DIMENSION DUMMY) (REAL 8 0 0 0 REAL ()) 0 0 () (1 0 ASSUMED_SHAPE (
CONSTANT (INTEGER 4 0 0 0 INTEGER ()) 0 '1') ()) 0 () () () 0 0)
195 'beta' '' '' 193 ((VARIABLE UNKNOWN-INTENT UNKNOWN-PROC UNKNOWN
UNKNOWN 0 0 DUMMY) (REAL 8 0 0 0 REAL ()) 0 0 () () 0 () () () 0 0)
196 'pmin' '' '' 193 ((VARIABLE UNKNOWN-INTENT UNKNOWN-PROC UNKNOWN
UNKNOWN 0 0 DUMMY) (REAL 8 0 0 0 REAL ()) 0 0 () () 0 () () () 0 0)
197 'pmax' '' '' 193 ((VARIABLE UNKNOWN-INTENT UNKNOWN-PROC UNKNOWN
UNKNOWN 0 0 DUMMY) (REAL 8 0 0 0 REAL ()) 0 0 () () 0 () () () 0 0)
200 'x' '' '' 199 ((VARIABLE INOUT UNKNOWN-PROC UNKNOWN UNKNOWN 0 0
DIMENSION DUMMY) (REAL 8 0 0 0 REAL ()) 0 0 () (1 0 ASSUMED_SHAPE (
CONSTANT (INTEGER 4 0 0 0 INTEGER ()) 0 '1') ()) 0 () () () 0 0)
201 'beta' '' '' 199 ((VARIABLE UNKNOWN-INTENT UNKNOWN-PROC UNKNOWN
UNKNOWN 0 0 DUMMY) (REAL 8 0 0 0 REAL ()) 0 0 () () 0 () () () 0 0)
202 'pmin' '' '' 199 ((VARIABLE UNKNOWN-INTENT UNKNOWN-PROC UNKNOWN
UNKNOWN 0 0 DUMMY) (REAL 8 0 0 0 REAL ()) 0 0 () () 0 () () () 0 0)
203 'pmax' '' '' 199 ((VARIABLE UNKNOWN-INTENT UNKNOWN-PROC UNKNOWN
UNKNOWN 0 0 DUMMY) (REAL 8 0 0 0 REAL ()) 0 0 () () 0 () () () 0 0)
206 'x' '' '' 205 ((VARIABLE INOUT UNKNOWN-PROC UNKNOWN UNKNOWN 0 0
DIMENSION DUMMY) (REAL 8 0 0 0 REAL ()) 0 0 () (1 0 ASSUMED_SHAPE (
CONSTANT (INTEGER 4 0 0 0 INTEGER ()) 0 '1') ()) 0 () () () 0 0)
207 'beta' '' '' 205 ((VARIABLE UNKNOWN-INTENT UNKNOWN-PROC UNKNOWN
UNKNOWN 0 0 DUMMY) (REAL 8 0 0 0 REAL ()) 0 0 () () 0 () () () 0 0)
208 'pmin' '' '' 205 ((VARIABLE UNKNOWN-INTENT UNKNOWN-PROC UNKNOWN
UNKNOWN 0 0 DUMMY) (REAL 8 0 0 0 REAL ()) 0 0 () () 0 () () () 0 0)
209 'pmax' '' '' 205 ((VARIABLE UNKNOWN-INTENT UNKNOWN-PROC UNKNOWN
UNKNOWN 0 0 DUMMY) (REAL 8 0 0 0 REAL ()) 0 0 () () 0 () () () 0 0)
212 'x' '' '' 211 ((VARIABLE INOUT UNKNOWN-PROC UNKNOWN UNKNOWN 0 0
DIMENSION DUMMY) (REAL 8 0 0 0 REAL ()) 0 0 () (1 0 ASSUMED_SHAPE (
CONSTANT (INTEGER 4 0 0 0 INTEGER ()) 0 '1') ()) 0 () () () 0 0)
213 'beta' '' '' 211 ((VARIABLE UNKNOWN-INTENT UNKNOWN-PROC UNKNOWN
UNKNOWN 0 0 DUMMY) (REAL 8 0 0 0 REAL ()) 0 0 () () 0 () () () 0 0)
214 'pmin' '' '' 211 ((VARIABLE UNKNOWN-INTENT UNKNOWN-PROC UNKNOWN
UNKNOWN 0 0 DUMMY) (REAL 8 0 0 0 REAL ()) 0 0 () () 0 () () () 0 0)
215 'pmax' '' '' 211 ((VARIABLE UNKNOWN-INTENT UNKNOWN-PROC UNKNOWN
UNKNOWN 0 0 DUMMY) (REAL 8 0 0 0 REAL ()) 0 0 () () 0 () () () 0 0)
218 'x' '' '' 217 ((VARIABLE INOUT UNKNOWN-PROC UNKNOWN UNKNOWN 0 0
DIMENSION DUMMY) (REAL 8 0 0 0 REAL ()) 0 0 () (1 0 ASSUMED_SHAPE (
CONSTANT (INTEGER 4 0 0 0 INTEGER ()) 0 '1') ()) 0 () () () 0 0)
219 'beta' '' '' 217 ((VARIABLE IN UNKNOWN-PROC UNKNOWN UNKNOWN 0 0
DUMMY) (REAL 8 0 0 0 REAL ()) 0 0 () () 0 () () () 0 0)
220 'pmin' '' '' 217 ((VARIABLE IN UNKNOWN-PROC UNKNOWN UNKNOWN 0 0
DUMMY) (REAL 8 0 0 0 REAL ()) 0 0 () () 0 () () () 0 0)
221 'pmax' '' '' 217 ((VARIABLE IN UNKNOWN-PROC UNKNOWN UNKNOWN 0 0
DUMMY) (REAL 8 0 0 0 REAL ()) 0 0 () () 0 () () () 0 0)
224 'x' '' '' 223 ((VARIABLE INOUT UNKNOWN-PROC UNKNOWN UNKNOWN 0 0
DIMENSION DUMMY) (REAL 8 0 0 0 REAL ()) 0 0 () (1 0 ASSUMED_SHAPE (
CONSTANT (INTEGER 4 0 0 0 INTEGER ()) 0 '1') ()) 0 () () () 0 0)
225 'beta' '' '' 223 ((VARIABLE IN UNKNOWN-PROC UNKNOWN UNKNOWN 0 0
DUMMY) (REAL 8 0 0 0 REAL ()) 0 0 () () 0 () () () 0 0)
226 'pmin' '' '' 223 ((VARIABLE IN UNKNOWN-PROC UNKNOWN UNKNOWN 0 0
DUMMY) (REAL 8 0 0 0 REAL ()) 0 0 () () 0 () () () 0 0)
227 'pmax' '' '' 223 ((VARIABLE IN UNKNOWN-PROC UNKNOWN UNKNOWN 0 0
DUMMY) (REAL 8 0 0 0 REAL ()) 0 0 () () 0 () () () 0 0)
230 'x' '' '' 229 ((VARIABLE INOUT UNKNOWN-PROC UNKNOWN UNKNOWN 0 0
DIMENSION DUMMY) (REAL 8 0 0 0 REAL ()) 0 0 () (1 0 ASSUMED_SHAPE (
CONSTANT (INTEGER 4 0 0 0 INTEGER ()) 0 '1') ()) 0 () () () 0 0)
231 'beta' '' '' 229 ((VARIABLE UNKNOWN-INTENT UNKNOWN-PROC UNKNOWN
UNKNOWN 0 0 DUMMY) (REAL 8 0 0 0 REAL ()) 0 0 () () 0 () () () 0 0)
232 'pmin' '' '' 229 ((VARIABLE UNKNOWN-INTENT UNKNOWN-PROC UNKNOWN
UNKNOWN 0 0 DUMMY) (REAL 8 0 0 0 REAL ()) 0 0 () () 0 () () () 0 0)
233 'pmax' '' '' 229 ((VARIABLE UNKNOWN-INTENT UNKNOWN-PROC UNKNOWN
UNKNOWN 0 0 DUMMY) (REAL 8 0 0 0 REAL ()) 0 0 () () 0 () () () 0 0)
236 'm' '' '' 235 ((VARIABLE UNKNOWN-INTENT UNKNOWN-PROC UNKNOWN UNKNOWN
0 0 DUMMY) (REAL 8 0 0 0 REAL ()) 0 0 () () 0 () () () 0 0)
237 't' '' '' 235 ((VARIABLE UNKNOWN-INTENT UNKNOWN-PROC UNKNOWN UNKNOWN
0 0 DUMMY) (REAL 8 0 0 0 REAL ()) 0 0 () () 0 () () () 0 0)
238 't4' '' '' 235 ((VARIABLE UNKNOWN-INTENT UNKNOWN-PROC UNKNOWN
UNKNOWN 0 0 DUMMY) (REAL 8 0 0 0 REAL ()) 0 0 () () 0 () () () 0 0)
241 'x' '' '' 240 ((VARIABLE IN UNKNOWN-PROC UNKNOWN UNKNOWN 0 0
DIMENSION DUMMY) (REAL 8 0 0 0 REAL ()) 0 0 () (1 0 ASSUMED_SHAPE (
CONSTANT (INTEGER 4 0 0 0 INTEGER ()) 0 '1') ()) 0 () () () 0 0)
242 'beta' '' '' 240 ((VARIABLE IN UNKNOWN-PROC UNKNOWN UNKNOWN 0 0
DUMMY) (REAL 8 0 0 0 REAL ()) 0 0 () () 0 () () () 0 0)
243 'pmin' '' '' 240 ((VARIABLE IN UNKNOWN-PROC UNKNOWN UNKNOWN 0 0
DUMMY) (REAL 8 0 0 0 REAL ()) 0 0 () () 0 () () () 0 0)
244 'pmax' '' '' 240 ((VARIABLE IN UNKNOWN-PROC UNKNOWN UNKNOWN 0 0
DUMMY) (REAL 8 0 0 0 REAL ()) 0 0 () () 0 () () () 0 0)
247 'x' '' '' 246 ((VARIABLE IN UNKNOWN-PROC UNKNOWN UNKNOWN 0 0
DIMENSION DUMMY) (REAL 8 0 0 0 REAL ()) 0 0 () (1 0 ASSUMED_SHAPE (
CONSTANT (INTEGER 4 0 0 0 INTEGER ()) 0 '1') ()) 0 () () () 0 0)
248 'y' '' '' 246 ((VARIABLE IN UNKNOWN-PROC UNKNOWN UNKNOWN 0 0
DIMENSION DUMMY) (REAL 8 0 0 0 REAL ()) 0 0 () (1 0 ASSUMED_SHAPE (
CONSTANT (INTEGER 4 0 0 0 INTEGER ()) 0 '1') ()) 0 () () () 0 0)
249 'delta' '' '' 246 ((VARIABLE IN UNKNOWN-PROC UNKNOWN UNKNOWN 0 0
DIMENSION DUMMY) (REAL 8 0 0 0 REAL ()) 0 0 () (1 0 ASSUMED_SHAPE (
CONSTANT (INTEGER 4 0 0 0 INTEGER ()) 0 '1') ()) 0 () () () 0 0)
250 'mask' '' '' 246 ((VARIABLE IN UNKNOWN-PROC UNKNOWN UNKNOWN 0 0
DIMENSION DUMMY) (LOGICAL 4 0 0 0 LOGICAL ()) 0 0 () (1 0 EXPLICIT (
CONSTANT (INTEGER 4 0 0 0 INTEGER ()) 0 '1') (FUNCTION (INTEGER 4 0 0 0
INTEGER ()) 0 397 (('' (VARIABLE (REAL 8 0 0 0 REAL ()) 1 247 ((ARRAY (
FULL 1 2))))) ('' ()) ('' ())) '' 0 'size')) 0 () () () 0 0)
251 'a' '' '' 246 ((VARIABLE OUT UNKNOWN-PROC UNKNOWN UNKNOWN 0 0 DUMMY)
(REAL 8 0 0 0 REAL ()) 0 0 () () 0 () () () 0 0)
252 'b' '' '' 246 ((VARIABLE OUT UNKNOWN-PROC UNKNOWN UNKNOWN 0 0 DUMMY)
(REAL 8 0 0 0 REAL ()) 0 0 () () 0 () () () 0 0)
255 'x' '' '' 254 ((VARIABLE IN UNKNOWN-PROC UNKNOWN UNKNOWN 0 0
DIMENSION DUMMY) (REAL 8 0 0 0 REAL ()) 0 0 () (1 0 ASSUMED_SHAPE (
CONSTANT (INTEGER 4 0 0 0 INTEGER ()) 0 '1') ()) 0 () () () 0 0)
256 'beta' '' '' 254 ((VARIABLE IN UNKNOWN-PROC UNKNOWN UNKNOWN 0 0
DUMMY) (REAL 8 0 0 0 REAL ()) 0 0 () () 0 () () () 0 0)
257 'pmin' '' '' 254 ((VARIABLE IN UNKNOWN-PROC UNKNOWN UNKNOWN 0 0
DUMMY) (REAL 8 0 0 0 REAL ()) 0 0 () () 0 () () () 0 0)
258 'pmax' '' '' 254 ((VARIABLE IN UNKNOWN-PROC UNKNOWN UNKNOWN 0 0
DUMMY) (REAL 8 0 0 0 REAL ()) 0 0 () () 0 () () () 0 0)
260 'a' '' '' 259 ((VARIABLE INOUT UNKNOWN-PROC UNKNOWN UNKNOWN 0 0
DUMMY) (REAL 8 0 0 0 REAL ()) 0 0 () () 0 () () () 0 0)
261 'b' '' '' 259 ((VARIABLE INOUT UNKNOWN-PROC UNKNOWN UNKNOWN 0 0
DUMMY) (REAL 8 0 0 0 REAL ()) 0 0 () () 0 () () () 0 0)
262 'mask' '' '' 259 ((VARIABLE IN UNKNOWN-PROC UNKNOWN UNKNOWN 0 0
DUMMY) (LOGICAL 4 0 0 0 LOGICAL ()) 0 0 () () 0 () () () 0 0)
268 'x' '' '' 267 ((VARIABLE IN UNKNOWN-PROC UNKNOWN UNKNOWN 0 0
DIMENSION DUMMY) (REAL 8 0 0 0 REAL ()) 0 0 () (1 0 ASSUMED_SHAPE (
CONSTANT (INTEGER 4 0 0 0 INTEGER ()) 0 '1') ()) 0 () () () 0 0)
269 'beta' '' '' 267 ((VARIABLE OUT UNKNOWN-PROC UNKNOWN UNKNOWN 0 0
DUMMY) (REAL 8 0 0 0 REAL ()) 0 0 () () 0 () () () 0 0)
270 'mmin' '' '' 267 ((VARIABLE OUT UNKNOWN-PROC UNKNOWN UNKNOWN 0 0
DUMMY) (REAL 8 0 0 0 REAL ()) 0 0 () () 0 () () () 0 0)
271 'mmax' '' '' 267 ((VARIABLE OUT UNKNOWN-PROC UNKNOWN UNKNOWN 0 0
DUMMY) (REAL 8 0 0 0 REAL ()) 0 0 () () 0 () () () 0 0)
274 'x' '' '' 273 ((VARIABLE IN UNKNOWN-PROC UNKNOWN UNKNOWN 0 0
DIMENSION DUMMY) (REAL 8 0 0 0 REAL ()) 0 0 () (1 0 ASSUMED_SHAPE (
CONSTANT (INTEGER 4 0 0 0 INTEGER ()) 0 '1') ()) 0 () () () 0 0)
275 'beta' '' '' 273 ((VARIABLE IN UNKNOWN-PROC UNKNOWN UNKNOWN 0 0
DUMMY) (REAL 8 0 0 0 REAL ()) 0 0 () () 0 () () () 0 0)
276 'pmin' '' '' 273 ((VARIABLE IN UNKNOWN-PROC UNKNOWN UNKNOWN 0 0
DUMMY) (REAL 8 0 0 0 REAL ()) 0 0 () () 0 () () () 0 0)
277 'pmax' '' '' 273 ((VARIABLE IN UNKNOWN-PROC UNKNOWN UNKNOWN 0 0
DUMMY) (REAL 8 0 0 0 REAL ()) 0 0 () () 0 () () () 0 0)
280 'x' '' '' 279 ((VARIABLE IN UNKNOWN-PROC UNKNOWN UNKNOWN 0 0
DIMENSION DUMMY) (REAL 8 0 0 0 REAL ()) 0 0 () (1 0 ASSUMED_SHAPE (
CONSTANT (INTEGER 4 0 0 0 INTEGER ()) 0 '1') ()) 0 () () () 0 0)
281 'beta' '' '' 279 ((VARIABLE OUT UNKNOWN-PROC UNKNOWN UNKNOWN 0 0
DUMMY) (REAL 8 0 0 0 REAL ()) 0 0 () () 0 () () () 0 0)
282 'xmin' '' '' 279 ((VARIABLE OUT UNKNOWN-PROC UNKNOWN UNKNOWN 0 0
DUMMY) (REAL 8 0 0 0 REAL ()) 0 0 () () 0 () () () 0 0)
283 'xmax' '' '' 279 ((VARIABLE OUT UNKNOWN-PROC UNKNOWN UNKNOWN 0 0
DUMMY) (REAL 8 0 0 0 REAL ()) 0 0 () () 0 () () () 0 0)
286 'x' '' '' 285 ((VARIABLE INOUT UNKNOWN-PROC UNKNOWN UNKNOWN 0 0
DIMENSION DUMMY) (REAL 8 0 0 0 REAL ()) 0 0 () (1 0 ASSUMED_SHAPE (
CONSTANT (INTEGER 4 0 0 0 INTEGER ()) 0 '1') ()) 0 () () () 0 0)
287 'beta' '' '' 285 ((VARIABLE IN UNKNOWN-PROC UNKNOWN UNKNOWN 0 0
DUMMY) (REAL 8 0 0 0 REAL ()) 0 0 () () 0 () () () 0 0)
288 'pmin' '' '' 285 ((VARIABLE IN UNKNOWN-PROC UNKNOWN UNKNOWN 0 0
DUMMY) (REAL 8 0 0 0 REAL ()) 0 0 () () 0 () () () 0 0)
289 'pmax' '' '' 285 ((VARIABLE IN UNKNOWN-PROC UNKNOWN UNKNOWN 0 0
DUMMY) (REAL 8 0 0 0 REAL ()) 0 0 () () 0 () () () 0 0)
292 'filename' '' '' 291 ((VARIABLE UNKNOWN-INTENT UNKNOWN-PROC UNKNOWN
UNKNOWN 0 0 DUMMY) (CHARACTER 1 0 0 0 CHARACTER ((CONSTANT (INTEGER 4 0
0 0 INTEGER ()) 0 '50'))) 0 0 () () 0 () () () 0 0)
295 'dir' '' '' 294 ((VARIABLE UNKNOWN-INTENT UNKNOWN-PROC UNKNOWN
UNKNOWN 0 0 DUMMY) (CHARACTER 1 0 0 0 CHARACTER ((CONSTANT (INTEGER 4 0
0 0 INTEGER ()) 0 '50'))) 0 0 () () 0 () () () 0 0)
296 'fil' '' '' 294 ((VARIABLE UNKNOWN-INTENT UNKNOWN-PROC UNKNOWN
UNKNOWN 0 0 DUMMY) (CHARACTER 1 0 0 0 CHARACTER ((CONSTANT (INTEGER 4 0
0 0 INTEGER ()) 0 '50'))) 0 0 () () 0 () () () 0 0)
299 'x' '' '' 298 ((VARIABLE IN UNKNOWN-PROC UNKNOWN UNKNOWN 0 0 DUMMY)
(REAL 8 0 0 0 REAL ()) 0 0 () () 0 () () () 0 0)
300 'a' '' '' 298 ((VARIABLE IN UNKNOWN-PROC UNKNOWN UNKNOWN 0 0 DUMMY)
(REAL 8 0 0 0 REAL ()) 0 0 () () 0 () () () 0 0)
301 'b' '' '' 298 ((VARIABLE IN UNKNOWN-PROC UNKNOWN UNKNOWN 0 0 DUMMY)
(REAL 8 0 0 0 REAL ()) 0 0 () () 0 () () () 0 0)
304 'x' '' '' 303 ((VARIABLE IN UNKNOWN-PROC UNKNOWN UNKNOWN 0 0 DUMMY)
(REAL 8 0 0 0 REAL ()) 0 0 () () 0 () () () 0 0)
305 'alpha' '' '' 303 ((VARIABLE IN UNKNOWN-PROC UNKNOWN UNKNOWN 0 0
DUMMY) (REAL 8 0 0 0 REAL ()) 0 0 () () 0 () () () 0 0)
306 'xmin' '' '' 303 ((VARIABLE IN UNKNOWN-PROC UNKNOWN UNKNOWN 0 0
DUMMY) (REAL 8 0 0 0 REAL ()) 0 0 () () 0 () () () 0 0)
307 'xmax' '' '' 303 ((VARIABLE IN UNKNOWN-PROC UNKNOWN UNKNOWN 0 0
DUMMY) (REAL 8 0 0 0 REAL ()) 0 0 () () 0 () () () 0 0)
310 'x' '' '' 309 ((VARIABLE INOUT UNKNOWN-PROC UNKNOWN UNKNOWN 0 0
DIMENSION DUMMY) (REAL 8 0 0 0 REAL ()) 0 0 () (1 0 ASSUMED_SHAPE (
CONSTANT (INTEGER 4 0 0 0 INTEGER ()) 0 '1') ()) 0 () () () 0 0)
311 'beta' '' '' 309 ((VARIABLE IN UNKNOWN-PROC UNKNOWN UNKNOWN 0 0
DUMMY) (REAL 8 0 0 0 REAL ()) 0 0 () () 0 () () () 0 0)
312 'pmin' '' '' 309 ((VARIABLE IN UNKNOWN-PROC UNKNOWN UNKNOWN 0 0
DUMMY) (REAL 8 0 0 0 REAL ()) 0 0 () () 0 () () () 0 0)
313 'pmax' '' '' 309 ((VARIABLE IN UNKNOWN-PROC UNKNOWN UNKNOWN 0 0
DUMMY) (REAL 8 0 0 0 REAL ()) 0 0 () () 0 () () () 0 0)
316 'idum' '' '' 315 ((VARIABLE INOUT UNKNOWN-PROC UNKNOWN UNKNOWN 0 0
DUMMY) (INTEGER 4 0 0 0 INTEGER ()) 0 0 () () 0 () () () 0 0)
319 'idum' '' '' 318 ((VARIABLE INOUT UNKNOWN-PROC UNKNOWN UNKNOWN 0 0
DUMMY) (INTEGER 4 0 0 0 INTEGER ()) 0 0 () () 0 () () () 0 0)
322 'y' '' '' 321 ((VARIABLE INOUT UNKNOWN-PROC UNKNOWN UNKNOWN 0 0
DIMENSION DUMMY) (REAL 8 0 0 0 REAL ()) 0 0 () (1 0 ASSUMED_SHAPE (
CONSTANT (INTEGER 4 0 0 0 INTEGER ()) 0 '1') ()) 0 () () () 0 0)
323 'beta' '' '' 321 ((VARIABLE IN UNKNOWN-PROC UNKNOWN UNKNOWN 0 0
DUMMY) (REAL 8 0 0 0 REAL ()) 0 0 () () 0 () () () 0 0)
324 'pmin' '' '' 321 ((VARIABLE IN UNKNOWN-PROC UNKNOWN UNKNOWN 0 0
DUMMY) (REAL 8 0 0 0 REAL ()) 0 0 () () 0 () () () 0 0)
325 'pmax' '' '' 321 ((VARIABLE IN UNKNOWN-PROC UNKNOWN UNKNOWN 0 0
DUMMY) (REAL 8 0 0 0 REAL ()) 0 0 () () 0 () () () 0 0)
328 'x' '' '' 327 ((VARIABLE INOUT UNKNOWN-PROC UNKNOWN UNKNOWN 0 0
DIMENSION DUMMY) (REAL 8 0 0 0 REAL ()) 0 0 () (1 0 ASSUMED_SHAPE (
CONSTANT (INTEGER 4 0 0 0 INTEGER ()) 0 '1') ()) 0 () () () 0 0)
329 'beta' '' '' 327 ((VARIABLE IN UNKNOWN-PROC UNKNOWN UNKNOWN 0 0
DUMMY) (REAL 8 0 0 0 REAL ()) 0 0 () () 0 () () () 0 0)
330 'pmin' '' '' 327 ((VARIABLE IN UNKNOWN-PROC UNKNOWN UNKNOWN 0 0
DUMMY) (REAL 8 0 0 0 REAL ()) 0 0 () () 0 () () () 0 0)
331 'pmax' '' '' 327 ((VARIABLE IN UNKNOWN-PROC UNKNOWN UNKNOWN 0 0
DUMMY) (REAL 8 0 0 0 REAL ()) 0 0 () () 0 () () () 0 0)
334 'arr' '' '' 333 ((VARIABLE INOUT UNKNOWN-PROC UNKNOWN UNKNOWN 0 0
DIMENSION DUMMY) (REAL 8 0 0 0 REAL ()) 0 0 () (1 0 ASSUMED_SHAPE (
CONSTANT (INTEGER 4 0 0 0 INTEGER ()) 0 '1') ()) 0 () () () 0 0)
337 'arr' '' '' 336 ((VARIABLE INOUT UNKNOWN-PROC UNKNOWN UNKNOWN 0 0
DIMENSION DUMMY) (REAL 8 0 0 0 REAL ()) 0 0 () (1 0 ASSUMED_SHAPE (
CONSTANT (INTEGER 4 0 0 0 INTEGER ()) 0 '1') ()) 0 () () () 0 0)
340 'quant' '' '' 339 ((VARIABLE UNKNOWN-INTENT UNKNOWN-PROC UNKNOWN
UNKNOWN 0 0 DUMMY) (REAL 8 0 0 0 REAL ()) 0 0 () () 0 () () () 0 0)
344 'xin' '' '' 343 ((VARIABLE IN UNKNOWN-PROC UNKNOWN UNKNOWN 0 0
DIMENSION DUMMY) (REAL 8 0 0 0 REAL ()) 0 0 () (1 0 ASSUMED_SHAPE (
CONSTANT (INTEGER 4 0 0 0 INTEGER ()) 0 '1') ()) 0 () () () 0 0)
346 'a' '' '' 345 ((VARIABLE INOUT UNKNOWN-PROC UNKNOWN UNKNOWN 0 0
DUMMY) (REAL 8 0 0 0 REAL ()) 0 0 () () 0 () () () 0 0)
347 'b' '' '' 345 ((VARIABLE INOUT UNKNOWN-PROC UNKNOWN UNKNOWN 0 0
DUMMY) (REAL 8 0 0 0 REAL ()) 0 0 () () 0 () () () 0 0)
349 'a' '' '' 348 ((VARIABLE INOUT UNKNOWN-PROC UNKNOWN UNKNOWN 0 0
DIMENSION DUMMY) (REAL 8 0 0 0 REAL ()) 0 0 () (1 0 ASSUMED_SHAPE (
CONSTANT (INTEGER 4 0 0 0 INTEGER ()) 0 '1') ()) 0 () () () 0 0)
350 'b' '' '' 348 ((VARIABLE INOUT UNKNOWN-PROC UNKNOWN UNKNOWN 0 0
DIMENSION DUMMY) (REAL 8 0 0 0 REAL ()) 0 0 () (1 0 ASSUMED_SHAPE (
CONSTANT (INTEGER 4 0 0 0 INTEGER ()) 0 '1') ()) 0 () () () 0 0)
354 'n' '' '' 353 ((VARIABLE IN UNKNOWN-PROC UNKNOWN UNKNOWN 0 0 DUMMY)
(INTEGER 4 0 0 0 INTEGER ()) 0 0 () () 0 () () () 0 0)
355 'data' '' '' 353 ((VARIABLE IN UNKNOWN-PROC UNKNOWN UNKNOWN 0 0
DIMENSION DUMMY) (REAL 8 0 0 0 REAL ()) 0 0 () (1 0 ASSUMED_SHAPE (
CONSTANT (INTEGER 4 0 0 0 INTEGER ()) 0 '1') ()) 0 () () () 0 0)
356 'beta' '' '' 353 ((VARIABLE OUT UNKNOWN-PROC UNKNOWN UNKNOWN 0 0
DUMMY) (REAL 8 0 0 0 REAL ()) 0 0 () () 0 () () () 0 0)
357 'mmax' '' '' 353 ((VARIABLE OUT UNKNOWN-PROC UNKNOWN UNKNOWN 0 0
DUMMY) (REAL 8 0 0 0 REAL ()) 0 0 () () 0 () () () 0 0)
360 'x' '' '' 359 ((VARIABLE INOUT UNKNOWN-PROC UNKNOWN UNKNOWN 0 0
DIMENSION DUMMY) (REAL 8 0 0 0 REAL ()) 0 0 () (1 0 ASSUMED_SHAPE (
CONSTANT (INTEGER 4 0 0 0 INTEGER ()) 0 '1') ()) 0 () () () 0 0)
361 'beta' '' '' 359 ((VARIABLE IN UNKNOWN-PROC UNKNOWN UNKNOWN 0 0
DUMMY) (REAL 8 0 0 0 REAL ()) 0 0 () () 0 () () () 0 0)
362 'pmin' '' '' 359 ((VARIABLE IN UNKNOWN-PROC UNKNOWN UNKNOWN 0 0
DUMMY) (REAL 8 0 0 0 REAL ()) 0 0 () () 0 () () () 0 0)
363 'pmax' '' '' 359 ((VARIABLE IN UNKNOWN-PROC UNKNOWN UNKNOWN 0 0
DUMMY) (REAL 8 0 0 0 REAL ()) 0 0 () () 0 () () () 0 0)
366 'x' '' '' 365 ((VARIABLE INOUT UNKNOWN-PROC UNKNOWN UNKNOWN 0 0
DIMENSION DUMMY) (REAL 8 0 0 0 REAL ()) 0 0 () (1 0 ASSUMED_SHAPE (
CONSTANT (INTEGER 4 0 0 0 INTEGER ()) 0 '1') ()) 0 () () () 0 0)
367 'beta' '' '' 365 ((VARIABLE IN UNKNOWN-PROC UNKNOWN UNKNOWN 0 0
DUMMY) (REAL 8 0 0 0 REAL ()) 0 0 () () 0 () () () 0 0)
368 'pmin' '' '' 365 ((VARIABLE IN UNKNOWN-PROC UNKNOWN UNKNOWN 0 0
DUMMY) (REAL 8 0 0 0 REAL ()) 0 0 () () 0 () () () 0 0)
369 'pmax' '' '' 365 ((VARIABLE IN UNKNOWN-PROC UNKNOWN UNKNOWN 0 0
DUMMY) (REAL 8 0 0 0 REAL ()) 0 0 () () 0 () () () 0 0)
372 'x' '' '' 371 ((VARIABLE INOUT UNKNOWN-PROC UNKNOWN UNKNOWN 0 0
DIMENSION DUMMY) (REAL 8 0 0 0 REAL ()) 0 0 () (1 0 ASSUMED_SHAPE (
CONSTANT (INTEGER 4 0 0 0 INTEGER ()) 0 '1') ()) 0 () () () 0 0)
373 'beta' '' '' 371 ((VARIABLE IN UNKNOWN-PROC UNKNOWN UNKNOWN 0 0
DUMMY) (REAL 8 0 0 0 REAL ()) 0 0 () () 0 () () () 0 0)
374 'pmin' '' '' 371 ((VARIABLE IN UNKNOWN-PROC UNKNOWN UNKNOWN 0 0
DUMMY) (REAL 8 0 0 0 REAL ()) 0 0 () () 0 () () () 0 0)
375 'pmax' '' '' 371 ((VARIABLE IN UNKNOWN-PROC UNKNOWN UNKNOWN 0 0
DUMMY) (REAL 8 0 0 0 REAL ()) 0 0 () () 0 () () () 0 0)
378 'x' '' '' 377 ((VARIABLE INOUT UNKNOWN-PROC UNKNOWN UNKNOWN 0 0
DIMENSION DUMMY) (REAL 8 0 0 0 REAL ()) 0 0 () (1 0 ASSUMED_SHAPE (
CONSTANT (INTEGER 4 0 0 0 INTEGER ()) 0 '1') ()) 0 () () () 0 0)
379 'beta' '' '' 377 ((VARIABLE IN UNKNOWN-PROC UNKNOWN UNKNOWN 0 0
DUMMY) (REAL 8 0 0 0 REAL ()) 0 0 () () 0 () () () 0 0)
380 'pmin' '' '' 377 ((VARIABLE IN UNKNOWN-PROC UNKNOWN UNKNOWN 0 0
DUMMY) (REAL 8 0 0 0 REAL ()) 0 0 () () 0 () () () 0 0)
381 'pmax' '' '' 377 ((VARIABLE IN UNKNOWN-PROC UNKNOWN UNKNOWN 0 0
DUMMY) (REAL 8 0 0 0 REAL ()) 0 0 () () 0 () () () 0 0)
384 'x' '' '' 383 ((VARIABLE INOUT UNKNOWN-PROC UNKNOWN UNKNOWN 0 0
DIMENSION DUMMY) (REAL 8 0 0 0 REAL ()) 0 0 () (1 0 ASSUMED_SHAPE (
CONSTANT (INTEGER 4 0 0 0 INTEGER ()) 0 '1') ()) 0 () () () 0 0)
385 'beta' '' '' 383 ((VARIABLE IN UNKNOWN-PROC UNKNOWN UNKNOWN 0 0
DUMMY) (REAL 8 0 0 0 REAL ()) 0 0 () () 0 () () () 0 0)
386 'pmin' '' '' 383 ((VARIABLE IN UNKNOWN-PROC UNKNOWN UNKNOWN 0 0
DUMMY) (REAL 8 0 0 0 REAL ()) 0 0 () () 0 () () () 0 0)
387 'pmax' '' '' 383 ((VARIABLE IN UNKNOWN-PROC UNKNOWN UNKNOWN 0 0
DUMMY) (REAL 8 0 0 0 REAL ()) 0 0 () () 0 () () () 0 0)
390 'x' '' '' 389 ((VARIABLE INOUT UNKNOWN-PROC UNKNOWN UNKNOWN 0 0
DIMENSION DUMMY) (REAL 8 0 0 0 REAL ()) 0 0 () (1 0 ASSUMED_SHAPE (
CONSTANT (INTEGER 4 0 0 0 INTEGER ()) 0 '1') ()) 0 () () () 0 0)
391 'beta' '' '' 389 ((VARIABLE IN UNKNOWN-PROC UNKNOWN UNKNOWN 0 0
DUMMY) (REAL 8 0 0 0 REAL ()) 0 0 () () 0 () () () 0 0)
392 'pmin' '' '' 389 ((VARIABLE IN UNKNOWN-PROC UNKNOWN UNKNOWN 0 0
DUMMY) (REAL 8 0 0 0 REAL ()) 0 0 () () 0 () () () 0 0)
393 'pmax' '' '' 389 ((VARIABLE IN UNKNOWN-PROC UNKNOWN UNKNOWN 0 0
DUMMY) (REAL 8 0 0 0 REAL ()) 0 0 () () 0 () () () 0 0)
394 'size' '(intrinsic)' '' 14 ((PROCEDURE UNKNOWN-INTENT UNKNOWN-PROC
UNKNOWN UNKNOWN 0 0 FUNCTION) (UNKNOWN 0 0 0 0 UNKNOWN ()) 0 0 () () 394
() () () 0 0)
395 'size' '(intrinsic)' '' 78 ((PROCEDURE UNKNOWN-INTENT UNKNOWN-PROC
UNKNOWN UNKNOWN 0 0 FUNCTION) (UNKNOWN 0 0 0 0 UNKNOWN ()) 0 0 () () 395
() () () 0 0)
396 'size' '(intrinsic)' '' 84 ((PROCEDURE UNKNOWN-INTENT UNKNOWN-PROC
UNKNOWN UNKNOWN 0 0 FUNCTION) (UNKNOWN 0 0 0 0 UNKNOWN ()) 0 0 () () 396
() () () 0 0)
397 'size' '(intrinsic)' '' 246 ((PROCEDURE UNKNOWN-INTENT UNKNOWN-PROC
UNKNOWN UNKNOWN 0 0 FUNCTION) (REAL 4 0 0 0 REAL ()) 0 0 () () 397 () ()
() 0 0)
)

('amoebaccd' 0 5 'amoebavarbinestchi' 0 13 'asquaredpl' 0 21 'avdeviation'
0 27 'average' 0 30 'baxterest' 0 34 'begest' 0 39 'begest_recursive' 0
45 'binko' 0 51 'burrcdf' 0 55 'cadd' 0 61 'ccdest' 0 65 'chisquare_ccd'
0 71 'chisquare_plbinw' 0 77 'chisquareplbinw' 0 83 'constbinestlr' 0 88
'diagnostic' 0 93 'epsteinpl' 0 97 'error' 0 103 'exppdf' 0 107 'fak' 0
113 'gaussian' 0 116 'genmassexp' 0 121 'genmasspl' 0 126 'greenwoodpl'
0 132 'histogram' 0 138 'imaxloc' 0 144 'iminloc' 0 147 'intexppdf' 0
150 'intpdfpl' 0 156 'invintpdfpl' 0 162 'jackson' 0 168 'k0spsquaredsppl'
0 174 'k0squaredpl' 0 180 'ksminuspl' 0 186 'ksminussppl' 0 192 'kspl' 0
198 'kspluspl' 0 204 'ksplussppl' 0 210 'ksquaredpl' 0 216 'ksquaredsppl'
0 222 'kssppl' 0 228 'lamersdynevolv' 0 234 'likelihoodratio' 0 239
'linreg' 0 245 'loglikelihoodratio' 0 253 'masked_swap_r' 0 3 'mathmod'
0 263 'mfestmod' 0 264 'mffunmod' 0 265 'mlest' 0 266 'mmaxtest' 0 272
'modmlest' 0 278 'moranpl' 0 284 'numberoflines' 0 290 'path' 0 293
'plpdf' 0 297 'pltpdf' 0 302 'ppresidual' 0 308 'ran' 0 314 'ran2' 0 317
'rsquaredpl' 0 320 'shapirowilkpl' 0 326 'sort' 0 332 'sort_quick' 0 335
'stabquant' 0 338 'statfunmod' 0 341 'stddeviation' 0 342 'swap_r' 0 4
'swap_rv' 0 2 'utilmod' 0 351 'varbinestchi' 0 352 'wsquaredpl' 0 358
'wsquaredsppl' 0 364 'zpl' 0 370 'zqpl' 0 376 'zstarpl' 0 382
'zstarstarpl' 0 388)
