  -8.3000001907348633       0.41357655662801052     
  -8.2000001892447472       0.64932314530454849     
  -8.1000001877546310       0.79433089431650106     
  -8.0000001862645149       0.89218528517263840     
